<svg width="753" height="4" viewBox="0 0 753 4" fill="none" xmlns="http://www.w3.org/2000/svg">
<path d="M2 1.99997L750.5 1.99997" stroke="#BBC1C8" stroke-width="4" stroke-linecap="round" stroke-dasharray="15.22 15.22"/>
</svg>
